…
Now we get 6 six. This is excactly the expected value.

## Aggregate

Lets increase rounds to 10 000. To see how many times we got a six in each round, use ```agg = TRUE```

```R
roll_dice(times = 6, rounds = 10000, agg = TRUE, seed = 123)
```

```
# A tibble: 10,000 × 4
   experiment round times success
        <int> <int> <int>   <int>
 1          1     1     6       2
 2          1     2     6       2
 3          1     3     6       0
 4          1     4     6       0
 5          1     5     6       2
 6          1     6     6       0
 7          1     7     6       0
 8          1     8     6       1
 9          1     9     6       0
10          1    10     6       1
# … with 9,990 more rows
```
…
